{
    "account" : {
        "label" : "Account",        
        "armodel" : "debune_account",
        "objAttributes":{}
    },
    "asset" : {
        "label":"Asset",
        "armodel" : "debune_asset",
        "objAttributes":{}
    }
}
